-I$(INRS_DEV)/H2D2/algo_remesh/source
-I$(INRS_DEV)/H2D2/b_BGL/source
-I$(INRS_DEV)/H2D2/b_MUMPS/source
-I$(INRS_DEV)/H2D2/b_ParMetis/source
-I$(INRS_DEV)/H2D2/b_PETSc/source
-I$(INRS_DEV)/H2D2/b_Remesh/source
-I$(INRS_DEV)/H2D2/b_Scotch/source
-I$(INRS_DEV)/H2D2/b_SuperLU_DS/source
-I$(INRS_DEV)/H2D2/b_SuperLU_SP/source
-I$(INRS_DEV)/H2D2/cd2d_age/source
-I$(INRS_DEV)/H2D2/cd2d_b1l/source
-I$(INRS_DEV)/H2D2/cd2d_bnl/source
-I$(INRS_DEV)/H2D2/cd2d_bse/source
-I$(INRS_DEV)/H2D2/cd2d_ccn/source
-I$(INRS_DEV)/H2D2/cd2d_clf/source
-I$(INRS_DEV)/H2D2/cd2d_mes/source
-I$(INRS_DEV)/H2D2/cd2d_mes1/source
-I$(INRS_DEV)/H2D2/cd2d_mes3/source
-I$(INRS_DEV)/H2D2/cd2d_mesn/source
-I$(INRS_DEV)/H2D2/cd2d_smp/source
-I$(INRS_DEV)/H2D2/cd2d_tmp/source
-I$(INRS_DEV)/H2D2/cd2d_tst/source
-I$(INRS_DEV)/H2D2/ea_cmmn/source
-I$(INRS_DEV)/H2D2/eg_cmmn/source
-I$(INRS_DEV)/H2D2/h2d2/source
-I$(INRS_DEV)/H2D2/h2d2_algo/source
-I$(INRS_DEV)/H2D2/h2d2_algo/source/al
-I$(INRS_DEV)/H2D2/h2d2_algo/source/ca
-I$(INRS_DEV)/H2D2/h2d2_algo/source/cc
-I$(INRS_DEV)/H2D2/h2d2_algo/source/ci
-I$(INRS_DEV)/H2D2/h2d2_algo/source/gl
-I$(INRS_DEV)/H2D2/h2d2_algo/source/hm
-I$(INRS_DEV)/H2D2/h2d2_algo/source/mr
-I$(INRS_DEV)/H2D2/h2d2_algo/source/mx
-I$(INRS_DEV)/H2D2/h2d2_algo/source/pr
-I$(INRS_DEV)/H2D2/h2d2_algo/source/proto/al
-I$(INRS_DEV)/H2D2/h2d2_algo/source/proto/pj
-I$(INRS_DEV)/H2D2/h2d2_elem/source
-I$(INRS_DEV)/H2D2/h2d2_elem/source/GPU
-I$(INRS_DEV)/H2D2/h2d2_elem/source/lmelem
-I$(INRS_DEV)/H2D2/h2d2_elem/source/lmgeom
-I$(INRS_DEV)/H2D2/h2d2_elem/source/lmlgcy
-I$(INRS_DEV)/H2D2/h2d2_gpu/source
-I$(INRS_DEV)/H2D2/h2d2_krnl/source
-I$(INRS_DEV)/H2D2/h2d2_post/source
-I$(INRS_DEV)/H2D2/h2d2_svc/source
-I$(INRS_DEV)/H2D2/h2d2_umef/source
-I$(INRS_DEV)/H2D2/libh2d2/source
-I$(INRS_DEV)/H2D2/lmgo_l2/source
-I$(INRS_DEV)/H2D2/lmgo_l3l/source
-I$(INRS_DEV)/H2D2/lmgo_p12l/source
-I$(INRS_DEV)/H2D2/lmgo_t3/source
-I$(INRS_DEV)/H2D2/lmgo_t6l/source
-I$(INRS_DEV)/H2D2/ni_p12l/source
-I$(INRS_DEV)/H2D2/ni_t6l/source
-I$(INRS_DEV)/H2D2/ns_macro3d/source
-I$(INRS_DEV)/H2D2/numr_bgl/source
-I$(INRS_DEV)/H2D2/numr_front/source
-I$(INRS_DEV)/H2D2/numr_pmetis/source
-I$(INRS_DEV)/H2D2/numr_scotch/source
-I$(INRS_DEV)/H2D2/sed2d/source
-I$(INRS_DEV)/H2D2/slvr_mkl/source
-I$(INRS_DEV)/H2D2/slvr_mumps/source
-I$(INRS_DEV)/H2D2/slvr_ptsc/source
-I$(INRS_DEV)/H2D2/slvr_skit/source
-I$(INRS_DEV)/H2D2/slvr_slud/source
-I$(INRS_DEV)/H2D2/slvr_slus/source
-I$(INRS_DEV)/H2D2/sv2d/source
-I$(INRS_DEV)/H2D2/sv2d/source/BC
-I$(INRS_DEV)/H2D2/sv2d/source/cbs
-I$(INRS_DEV)/H2D2/sv2d/source/cnb
-I$(INRS_DEV)/H2D2/sv2d/source/cnn
-I$(INRS_DEV)/H2D2/sv2d/source/mh
-I$(INRS_DEV)/H2D2/sv2d/source/pst
-I$(INRS_DEV)/H2D2/sv2d/source/yx
-I$(INRS_DEV)/H2D2/sv2d/source/cbs/asm
-I$(INRS_DEV)/H2D2/sv2d/source/cbs/clim
-I$(INRS_DEV)/H2D2/sv2d/source/cbs/dlib
-I$(INRS_DEV)/H2D2/sv2d/source/cbs/pres
-I$(INRS_DEV)/H2D2/sv2d/source/cbs/prev
-I$(INRS_DEV)/H2D2/sv2d/source/cbs/prgl
-I$(INRS_DEV)/H2D2/sv2d/source/cbs/prno
-I$(INRS_DEV)/H2D2/sv2d/source/cbs/solc
-I$(INRS_DEV)/H2D2/sv2d/source/cbs/solr
-I$(INRS_DEV)/H2D2/sv2d/source/cnb/dlib
-I$(INRS_DEV)/H2D2/sv2d/source/cnn/dlib
-I$(INRS_DEV)/H2D2/sv2d/source/yx/y1
-I$(INRS_DEV)/H2D2/sv2d/source/yx/y2
-I$(INRS_DEV)/H2D2/sv2d/source/yx/y3
-I$(INRS_DEV)/H2D2/sv2d/source/yx/y4
-I$(INRS_DEV)/H2D2/sv2d/source/__class/xBC
-I$(INRS_DEV)/H2D2/sv2d/source/__class/xbs
-I$(INRS_DEV)/H2D2/sv2d/source/__class/xbs/clim
-I$(INRS_DEV)/H2D2/sv2d/source/__class/xbs/dlib
-I$(INRS_DEV)/H2D2/sv2d/source/__class/xbs/pres
-I$(INRS_DEV)/H2D2/sv2d/source/__class/xbs/prev
-I$(INRS_DEV)/H2D2/sv2d/source/__class/xbs/prgl
-I$(INRS_DEV)/H2D2/sv2d/source/__class/xbs/prno
-I$(INRS_DEV)/H2D2/sv2d/source/__class/xbs/solc
-I$(INRS_DEV)/H2D2/sv2d/source/__class/xbs/solr
-I$(INRS_DEV)/H2D2/sv2d/source/__class/xyx/y1
-I$(INRS_DEV)/H2D2/sv2d/source/__class/xyx/y2
-I$(INRS_DEV)/H2D2/sv2d/source/__class/xyx/y3
-I$(INRS_DEV)/H2D2/sv2d/source/__class/xyx/y4
-I$(INRS_DEV)/H2D2/sv2d/source/__class/xyx/y5
