 Ce test fonctionne en date du 1 septembre 2011. Tourner le test à la main puisque les noeuds des 4 coins (1,21 et 5,25)
 doivent appartenir aux limites 2 et 4 respectivement, ce qui est contraire au mode de fonctionnement du GENTEST.
 del, errl2, errMax =  0.250000000000000       0.000000000000000E+000
  0.000000000000000E+000
 target tol=  0.000000000000000E+000  1.000000000000000E-016
 test=ok
